{
  "name": "puppet-boolean",
  "version": "2.0.1",
  "author": "Vox Pupuli",
  "summary": "Boolean normalizing property for Puppet types",
  "license": "Apache-2.0",
  "source": "https://github.com/voxpupuli/puppet-boolean",
  "project_page": "https://github.com/voxpupuli/puppet-boolean",
  "issues_url": "https://github.com/voxpupuli/puppet-boolean/issues",
  "dependencies": [
  
  ],
  "data_provider": null,
  "operatingsystem_support": [
    {
      "operatingsystem": "RedHat",
      "operatingsystemrelease": [
        "6",
        "7"
      ]
    },
    {
      "operatingsystem": "CentOS",
      "operatingsystemrelease": [
        "6",
        "7"
      ]
    },
    {
      "operatingsystem": "Scientific",
      "operatingsystemrelease": [
        "6",
        "7"
      ]
    },
    {
      "operatingsystem": "Debian",
      "operatingsystemrelease": [
        "8"
      ]
    },
    {
      "operatingsystem": "Ubuntu",
      "operatingsystemrelease": [
        "14.04",
        "16.04"
      ]
    }
  ],
  "requirements": [
    {
      "name": "puppet",
      "version_requirement": ">= 4.10.0 < 6.0.0"
    }
  ],
  "tags": [
    "voxpupuli",
    "boolean"
  ]
}
